{
  "name": "Debug #3468",
  "description": "This is the description of Debug #3468",
  "image": "https://storage.googleapis.com/opensea-prod.appspot.com/puffs/4.png",
  "external_url": "https://www.google.com",
  "attributes": [
    {
      "trait_type": "Base",
      "value": "Robot"
    },
    {
      "trait_type": "Brain",
      "value": "Plasma Ball"
    },
    {
      "trait_type": "Brain Accessories",
      "value": "Blue Mowhack"
    },
    {
      "trait_type": "Brain Frame",
      "value": "Black Rim Dark Tint"
    },
    {
      "trait_type": "Ears Accessories",
      "value": "IIVXIX"
    },
    {
      "trait_type": "Eyes",
      "value": "LED"
    },
    {
      "trait_type": "Eyes Accessories",
      "value": "Red Visor"
    },
    {
      "trait_type": "Head Accessories",
      "value": "Receptor V-Type"
    },
    {
      "trait_type": "Skin Base",
      "value": "Type 0X"
    },
    {
      "trait_type": "Background",
      "value": "Neon Turqoise X Purple"
    },
    {
      "trait_type": "Brain Plate",
      "value": "Grey Base"
    },
    {
      "trait_type": "Clothing",
      "value": "The Neat Rebel"
    },
    {
      "trait_type": "Glove",
      "value": "Black Glove"
    },
    {
      "trait_type": "Pants",
      "value": "Black Shorts W Socks"
    },
    {
      "trait_type": "Shoes",
      "value": "The Chuck"
    }
  ]
}