{
  "name": "Debug #7525",
  "description": "",
  "image": "ipfs://QmZAjHJ6fUSjHCJErpPGmQhgSPqAE3yrk6EbH7HCSKbSgB/5.jpg",
  "attributes": [
    {
      "mainType": "Robot",
      "subType": "Brain Frame",
      "setName": "",
      "partName": "Black Rim Dark Tint"
    },
    {
      "mainType": "Robot",
      "subType": "Eyes",
      "setName": "",
      "partName": "Blue Type"
    },
    {
      "mainType": "Robot",
      "subType": "Head Accessories",
      "setName": "",
      "partName": "Receptor V-Type"
    },
    {
      "mainType": "Robot",
      "subType": "Skin Base",
      "setName": "Type 0X",
      "partName": ""
    },
    {
      "mainType": "General",
      "subType": "Background",
      "setName": "",
      "partName": "Green + Blue"
    },
    {
      "mainType": "General",
      "subType": "Brain Plate",
      "setName": "",
      "partName": "Grey Base"
    },
    {
      "mainType": "General",
      "subType": "Clothing",
      "setName": "The Invert",
      "partName": ""
    }
  ]
}