{
  "name": "Debug #4531",
  "description": "",
  "image": "ipfs://QmZAjHJ6fUSjHCJErpPGmQhgSPqAE3yrk6EbH7HCSKbSgB/9.jpg",
  "attributes": [
    {
      "mainType": "Human",
      "subType": "Back Accessories",
      "setName": "",
      "partName": "Small Black Wing"
    },
    {
      "mainType": "Human",
      "subType": "Brain",
      "setName": "",
      "partName": "Purple Neon Brain"
    },
    {
      "mainType": "Human",
      "subType": "Brain Accessories",
      "setName": "",
      "partName": "Frontal Asymmetrical Horn"
    },
    {
      "mainType": "Human",
      "subType": "Brain Frame",
      "setName": "",
      "partName": "Gold Rim Dark Tint"
    },
    {
      "mainType": "Human",
      "subType": "Ears Accessories",
      "setName": "",
      "partName": "Punk Spike"
    },
    {
      "mainType": "Human",
      "subType": "Eyes",
      "setName": "",
      "partName": "Green Eyes Blinded"
    },
    {
      "mainType": "Human",
      "subType": "Eyes Accessories",
      "setName": "",
      "partName": "V-Tech Type 01"
    },
    {
      "mainType": "Human",
      "subType": "Hair",
      "setName": "",
      "partName": "Purple Short Hair"
    },
    {
      "mainType": "Human",
      "subType": "Head Accessories",
      "setName": "",
      "partName": "Black Kitsune Mask"
    },
    {
      "mainType": "Human",
      "subType": "Mouth",
      "setName": "",
      "partName": "Sinister"
    },
    {
      "mainType": "Human",
      "subType": "Mouth Accessories",
      "setName": "",
      "partName": "Gas Mask"
    },
    {
      "mainType": "Human",
      "subType": "Pants",
      "setName": "Black Pants",
      "partName": ""
    },
    {
      "mainType": "Human",
      "subType": "Shoes",
      "setName": "Sporty X Shoes",
      "partName": ""
    },
    {
      "mainType": "Human",
      "subType": "Skin Base",
      "setName": "Mid Skin Tone",
      "partName": ""
    },
    {
      "mainType": "General",
      "subType": "Background",
      "setName": "",
      "partName": "Neon Green"
    },
    {
      "mainType": "General",
      "subType": "Brain Plate",
      "setName": "",
      "partName": "Grey Base"
    },
    {
      "mainType": "General",
      "subType": "Clothing",
      "setName": "The Invert",
      "partName": ""
    }
  ]
}